com/aw/bootservice/util/PropertyUtil.class
com/aw/bootservice/util/zookeeper/ZKManagerImpl.class
com/aw/bootservice/util/zookeeper/ZKConnection.class
com/aw/bootservice/controller/Web3jRestController.class
com/aw/bootservice/util/zookeeper/ZKConnection$1.class
com/aw/bootservice/util/GenericToken$1.class
com/aw/bootservice/util/Web3jUtil.class
com/aw/bootservice/entity/UserRepository.class
com/aw/bootservice/util/GenericToken.class
com/aw/bootservice/entity/TestUser.class
com/aw/bootservice/util/zookeeper/ZKManager.class
com/aw/bootservice/Application.class
com/aw/bootservice/controller/DAOController.class
